<svg xmlns="http://www.w3.org/2000/svg" width="37.879" height="32.132" viewBox="0 0 37.879 32.132">
  <g id="banner-aliment-icon-2" transform="translate(0 -38.84)">
    <g id="Group_16" data-name="Group 16" transform="translate(29.481 56.187)">
      <g id="Group_15" data-name="Group 15">
        <path id="Path_10" data-name="Path 10" d="M401.423,273.32h-2.929a7.62,7.62,0,0,1,.462,2.619v11.071a3.265,3.265,0,0,1-.188,1.094h4.843a3.285,3.285,0,0,0,3.281-3.281v-6.036A5.474,5.474,0,0,0,401.423,273.32Z" transform="translate(-398.494 -273.32)" fill="#fff"/>
      </g>
    </g>
    <g id="Group_18" data-name="Group 18" transform="translate(0 56.187)">
      <g id="Group_17" data-name="Group 17">
        <path id="Path_11" data-name="Path 11" d="M7.936,275.94a7.62,7.62,0,0,1,.462-2.619H5.468A5.474,5.474,0,0,0,0,278.789v6.036a3.285,3.285,0,0,0,3.281,3.281H8.124a3.266,3.266,0,0,1-.188-1.094Z" transform="translate(0 -273.321)" fill="#fff"/>
      </g>
    </g>
    <g id="Group_20" data-name="Group 20" transform="translate(10.123 53.339)">
      <g id="Group_19" data-name="Group 19">
        <path id="Path_12" data-name="Path 12" d="M148.994,234.815h-6.7a5.474,5.474,0,0,0-5.468,5.468v11.071a1.094,1.094,0,0,0,1.094,1.094h15.446a1.094,1.094,0,0,0,1.094-1.094V240.283A5.474,5.474,0,0,0,148.994,234.815Z" transform="translate(-136.829 -234.815)" fill="#fff"/>
      </g>
    </g>
    <g id="Group_22" data-name="Group 22" transform="translate(12.363 38.84)">
      <g id="Group_21" data-name="Group 21" transform="translate(0 0)">
        <path id="Path_13" data-name="Path 13" d="M173.69,38.84a6.575,6.575,0,1,0,6.576,6.576A6.583,6.583,0,0,0,173.69,38.84Z" transform="translate(-167.114 -38.84)" fill="#fff"/>
      </g>
    </g>
    <g id="Group_24" data-name="Group 24" transform="translate(2.474 44.969)">
      <g id="Group_23" data-name="Group 23" transform="translate(0 0)">
        <path id="Path_14" data-name="Path 14" d="M38.361,121.689a4.916,4.916,0,1,0,4.918,4.918A4.923,4.923,0,0,0,38.361,121.689Z" transform="translate(-33.443 -121.689)" fill="#fff"/>
      </g>
    </g>
    <g id="Group_26" data-name="Group 26" transform="translate(25.569 44.969)">
      <g id="Group_25" data-name="Group 25" transform="translate(0 0)">
        <path id="Path_15" data-name="Path 15" d="M350.525,121.689a4.918,4.918,0,1,0,4.918,4.918A4.923,4.923,0,0,0,350.525,121.689Z" transform="translate(-345.607 -121.689)" fill="#fff"/>
      </g>
    </g>
  </g>
</svg>
