<svg id="craft" xmlns="http://www.w3.org/2000/svg" width="30" height="30" viewBox="0 0 30 30">
  <path id="Path_23023" data-name="Path 23023" d="M397.98,349.3l-.422,1.7a10.3,10.3,0,0,1,2.021.7,14.6,14.6,0,0,1-4.26,1.125,18.837,18.837,0,0,1-.721,1.881c3.041-.4,5.525-1.037,6.4-1.9a1.553,1.553,0,0,0,.475-1.072C401.478,350.337,399.474,349.669,397.98,349.3Z" transform="translate(-371.478 -328.833)" fill="#7e3e97"/>
  <path id="Path_23024" data-name="Path 23024" d="M182.758,0V2.553C181.783,5.771,181,7,181,9.4a12.042,12.042,0,0,0,1.758,5.806v2.429a1.758,1.758,0,1,0,3.516,0V14.121a3.519,3.519,0,0,1,3.516-3.516v1.758a1.76,1.76,0,0,0-1.758,1.758v1.758h3.107L195.2,9.79,192.24,3.875a6.849,6.849,0,0,1-.694-3V0Z" transform="translate(-170.395)" fill="#7e3e97"/>
  <path id="Path_23025" data-name="Path 23025" d="M92.758,121a1.758,1.758,0,1,0,0,3.516h1.829A10.251,10.251,0,0,1,94.78,121Z" transform="translate(-85.668 -113.91)" fill="#7e3e97"/>
  <path id="Path_23026" data-name="Path 23026" d="M61,212.758a1.758,1.758,0,0,0,1.758,1.758h5.273v-.257A15.3,15.3,0,0,1,66.68,211H62.758A1.758,1.758,0,0,0,61,212.758Z" transform="translate(-57.426 -198.637)" fill="#7e3e97"/>
  <path id="Path_23027" data-name="Path 23027" d="M13.225,309.789l.035-1.758a69.237,69.237,0,0,0,10.582-.668,18.507,18.507,0,0,0,.826-5.484V301H17.637a3.516,3.516,0,0,1-7.031.018V301H5.332v.879c0,.528.07,1.047.115,1.569C.7,304.244,0,305.368,0,306.273c0,1.193,1.327,2,4.3,2.622l.359-1.72a8.546,8.546,0,0,1-2.748-.9,11.884,11.884,0,0,1,3.756-1.077,18.264,18.264,0,0,0,2.74,6.886l.844,1.283h11.5l.844-1.283a17.648,17.648,0,0,0,1.529-2.836,72.906,72.906,0,0,1-9.018.545Z" transform="translate(0 -283.363)" fill="#7e3e97"/>
</svg>
